day24 (Sequence detector - Moore Overlapping)/dump.vcd
$date
	Thu Sep 26 23:46:31 2024
$end
$version
	ModelSim Version 6.3g_p1
$end
$timescale
	1ps
$end
$scope module tb $end
$var reg 1 ! clk $end
$var reg 1 " rst_n $end
$var reg 1 # x $end
$var wire 1 $ z $end
$scope module sd $end
$var parameter 4 % A $end
$var parameter 4 & B $end
$var parameter 4 ' C $end
$var parameter 4 ( D $end
$var parameter 4 ) E $end
$var reg 1 * clk $end
$var reg 1 + rst_n $end
$var reg 1 , x $end
$var reg 1 - z $end
$var reg 4 . state [3:0] $end
$var reg 4 / next_state [3:0] $end
$upscope $end
$upscope $end
$enddefinitions $end
#0
$dumpvars
b1 %
b10 &
b11 '
b100 (
b101 )
0!
x"
0#
0*
0+
0,
x-
b0 .
b0 /
x$
$end
#1
0"
#2
1!
1*
b1 .
b1 /
0-
0$
#3
1"
1+
#4
0!
0*
#6
1#
1!
1,
1*
b10 /
#8
0!
0*
#10
1!
1*
b10 .
#12
0!
0*
#14
0#
1!
0,
1*
b11 /
#16
0!
0*
#18
1#
1!
1,
1*
b10 /
b11 .
b100 /
#20
0!
0*
#22
0#
1!
0,
1*
b1 /
b100 .
b101 /
#24
0!
0*
#26
1#
1!
1,
1*
b10 /
b101 .
b100 /
1-
1$
#28
0!
0*
#30
0#
1!
0,
1*
b1 /
b100 .
b101 /
0-
0$
#32
0!
0*
#34
1#
1!
1,
1*
b10 /
b101 .
b100 /
1-
1$
#36
0!
0*
#38
1!
1*
b100 .
b10 /
0-
0$
#40
0!
0*
#42
1!
1*
b10 .
#44
0!
0*
#46
0#
1!
0,
1*
b11 /
#48
0!
0*
#50
1#
1!
1,
1*
b10 /
b11 .
b100 /
#52
0!
0*
#54
0#
1!
0,
1*
b1 /
b100 .
b101 /
#56
0!
0*
#58
1#
1!
1,
1*
b10 /
b101 .
b100 /
1-
1$
#60
0!
0*
#62
0#
1!
0,
1*
b1 /
b100 .
b101 /
0-
0$
#64
0!
0*
#66
1!
1*
b101 .
b1 /
1-
1$
#68
0!
0*
#70
1!
1*
b1 .
0-
0$
